<?xml version="1.0" encoding="UTF-8" standalone="no"?>
<svg viewBox="0 0 24 24" version="1.1" xmlns="http://www.w3.org/2000/svg" xmlns:xlink="http://www.w3.org/1999/xlink">
    <g id="tick-copy-2">
        <rect id="Rectangle-2" fill="#60A601" x="0" y="0" width="24" height="24" rx="1.6"></rect>
        <path d="M10.724,16.9426667 C10.5426667,17.1133333 10.244,17.1133333 10.0626667,16.9426667 L5.99866667,13.06 C5.82266667,12.884 5.82266667,12.6013333 5.99866667,12.4253333 L7.32133333,11.1666667 C7.50266667,10.9906667 7.796,10.9906667 7.98266667,11.1666667 L10.0626667,13.156 C10.244,13.332 10.5426667,13.332 10.724,13.156 L16.5373333,7.59866667 C16.7186667,7.42266667 17.012,7.42266667 17.1933333,7.59866667 L18.516,8.85733333 C18.6973333,9.03333333 18.6973333,9.316 18.516,9.492 L10.724,16.9426667 L10.724,16.9426667 L10.724,16.9426667 Z" fill="#FFFFFF"></path>
    </g>
</svg>
