<?xml version="1.0" encoding="utf-8"?>
<!-- Generator: Adobe Illustrator 19.0.0, SVG Export Plug-In . SVG Version: 6.00 Build 0)  -->
<svg version="1.1" id="Layer_1" xmlns="http://www.w3.org/2000/svg" xmlns:xlink="http://www.w3.org/1999/xlink" x="0px" y="0px"
	 viewBox="0 0 26 26" style="enable-background:new 0 0 26 26;" xml:space="preserve">
<style type="text/css">
	.st0{fill:#FFFFFF;}
	.st1{fill:#F16175;}
	.st2{fill:#C2C1C1;}
	.st3{fill:none;stroke:#FFFFFF;stroke-width:2;stroke-miterlimit:10;}
	.st4{fill:#1C75BC;}
	.st5{fill:#60BD66;}
</style>
<g id="Oval-22">
	<path id="XMLID_975_" class="st0" d="M11.8-86.5c-5.8,0-10.6-4.8-10.6-10.8S5.9-108,11.8-108s10.6,4.8,10.6,10.8
		S17.6-86.5,11.8-86.5z M11.8-106c-4.7,0-8.6,3.9-8.6,8.8s3.8,8.8,8.6,8.8c4.7,0,8.6-3.9,8.6-8.8S16.5-106,11.8-106z"/>
</g>
<g id="path-1">
	
		<rect id="XMLID_974_" x="16.3" y="-87.4" transform="matrix(0.6672 0.7449 -0.7449 0.6672 -57.4028 -44.2322)" class="st0" width="9" height="2"/>
</g>
<g id="Page-1_4_">
	<g id="XMLID_547_">
		<path class="st1" d="M12.5-48.9C10.2-49.7,1-59.6,1-62.8c0-3.5,2.9-6.4,6.4-6.4c1.8,0,3.6,0.8,4.8,2.1l0.7,0.8l0.7-0.8
			c1.2-1.4,3-2.1,4.8-2.1c3.6,0,6.4,2.8,6.4,6.4c0,3.2-9.2,13.1-11.5,13.9L13-49.5L12.5-48.9z"/>
	</g>
	<g id="XMLID_182_">
		<path class="st1" d="M18.6-68.1c3,0,5.4,2.4,5.4,5.4c0,0.7-1.2,3.3-4.6,7.1c-2.5,2.9-4.6,4.7-5.7,5.5L13-51l-0.7,0.8
			c-1.1-0.7-3.2-2.5-5.7-5.5C3.2-59.5,2-62.1,2-62.8c0-3,2.4-5.4,5.4-5.4c1.6,0,3,0.7,4.1,1.8l1.5,1.6l1.5-1.6
			C15.5-67.5,17-68.1,18.6-68.1 M18.6-70.1c-2.2,0-4.2,1-5.6,2.5c-1.4-1.5-3.3-2.5-5.6-2.5c-4.1,0-7.4,3.3-7.4,7.4
			C0-59,10.3-47.9,12.7-47.9c0.1,0,0.3,0,0.3-0.1c0.1,0.1,0.2,0.1,0.3,0.1C15.7-47.9,26-59,26-62.8C26-66.9,22.7-70.1,18.6-70.1
			L18.6-70.1z"/>
	</g>
</g>
<g id="Page-1_5_">
	<path class="st1" d="M18.6-32.1c3,0,5.4,2.4,5.4,5.4c0,0.7-1.2,3.3-4.6,7.1c-2.8,3.3-5.2,5.2-6.1,5.7c-0.1,0-0.2,0-0.4,0
		c-0.1,0-0.2,0-0.4,0c-0.9-0.5-3.2-2.4-6.1-5.7C3.2-23.5,2-26.1,2-26.8c0-3,2.4-5.4,5.4-5.4c1.6,0,3,0.7,4.1,1.8
		c0.4,0.4,0.9,0.7,1.5,0.7c0.6,0,1.1-0.2,1.5-0.7C15.5-31.5,17-32.1,18.6-32.1 M18.6-34.1c-2.2,0-4.2,1-5.6,2.5
		c-1.4-1.5-3.3-2.5-5.6-2.5c-4.1,0-7.4,3.3-7.4,7.4C0-23,10.3-11.9,12.7-11.9c0.1,0,0.3,0,0.3-0.1c0.1,0.1,0.2,0.1,0.3,0.1
		C15.7-11.9,26-23,26-26.8C26-30.9,22.7-34.1,18.6-34.1L18.6-34.1z"/>
</g>
<g id="Stroke-1">
	<path id="XMLID_972_" class="st2" d="M10.2,13c0,1.5,1.3,2.7,2.8,2.7c1.6,0,2.8-1.2,2.8-2.7c0-1.5-1.3-2.7-2.8-2.7
		C11.4,10.3,10.2,11.5,10.2,13L10.2,13z"/>
</g>
<g id="Stroke-3">
	<path id="XMLID_971_" class="st2" d="M13,5.5c1.6,0,2.8-1.2,2.8-2.7S14.6,0,13,0c-1.6,0-2.8,1.2-2.8,2.7S11.4,5.5,13,5.5z"/>
</g>
<g id="Stroke-5">
	<path id="XMLID_932_" class="st2" d="M10.2,23.3c0,1.5,1.3,2.7,2.8,2.7c1.6,0,2.8-1.2,2.8-2.7c0-1.5-1.3-2.7-2.8-2.7
		C11.4,20.5,10.2,21.7,10.2,23.3L10.2,23.3z"/>
</g>
<g id="XMLID_99_">
	<path id="XMLID_968_" class="st0" d="M25-157H1v-18h24V-157z M3-159h20v-14H3V-159z"/>
</g>
<g id="XMLID_100_">
	<path id="XMLID_967_" class="st0" d="M19-174h-2v-1.1c0-0.6-0.4-0.9-0.9-0.9H9.9c-0.5,0-0.9,0.4-0.9,0.9v1.1H7v-1.1
		c0-1.7,1.2-2.9,2.9-2.9h6.2c1.7,0,2.9,1.3,2.9,2.9V-174z"/>
</g>
<g id="XMLID_145_">
	<path id="XMLID_964_" class="st0" d="M13-120c-2.9,0-5.7-1.1-7.8-3.2C3.1-125.3,2-128.1,2-131s1.1-5.7,3.2-7.8
		c2.1-2.1,4.8-3.2,7.8-3.2c2.9,0,5.7,1.1,7.8,3.2l0,0c2.1,2.1,3.2,4.8,3.2,7.8s-1.1,5.7-3.2,7.8C18.7-121.1,15.9-120,13-120z
		 M13-140c-2.4,0-4.7,0.9-6.4,2.6S4-133.4,4-131s0.9,4.7,2.6,6.4s4,2.6,6.4,2.6c2.4,0,4.7-0.9,6.4-2.6s2.6-4,2.6-6.4
		s-0.9-4.7-2.6-6.4l0,0C17.7-139.1,15.4-140,13-140z"/>
</g>
<g id="XMLID_146_">
	
		<rect id="XMLID_963_" x="4.2" y="-139.8" transform="matrix(0.7071 0.7071 -0.7071 0.7071 -96.6066 -44.3375)" class="st0" width="2" height="2"/>
</g>
<g id="XMLID_43_">
	<rect id="XMLID_962_" x="1" y="-132" class="st0" width="2" height="2"/>
</g>
<g id="XMLID_44_">
	
		<rect id="XMLID_961_" x="4.2" y="-124.2" transform="matrix(0.7071 0.7071 -0.7071 0.7071 -85.5995 -39.7782)" class="st0" width="2" height="2"/>
</g>
<g id="XMLID_45_">
	<rect id="XMLID_960_" x="12" y="-121" class="st0" width="2" height="2"/>
</g>
<g id="XMLID_46_">
	
		<rect id="XMLID_959_" x="19.8" y="-124.2" transform="matrix(0.7071 0.7071 -0.7071 0.7071 -81.0402 -50.7853)" class="st0" width="2" height="2"/>
</g>
<g id="XMLID_47_">
	<rect id="XMLID_958_" x="23" y="-132" class="st0" width="2" height="2"/>
</g>
<g id="XMLID_48_">
	
		<rect id="XMLID_957_" x="19.8" y="-139.8" transform="matrix(0.7071 0.7071 -0.7071 0.7071 -92.0473 -55.3446)" class="st0" width="2" height="2"/>
</g>
<g id="XMLID_50_">
	<rect id="XMLID_956_" x="12" y="-143" class="st0" width="2" height="2"/>
</g>
<g id="XMLID_606_">
	<path id="XMLID_953_" class="st0" d="M13-267.9c-6.1,0-11-4.9-11-11c0-6.1,4.9-11,11-11s11,4.9,11,11C24-272.9,19.1-267.9,13-267.9
		z M13-288c-5,0-9,4-9,9c0,5,4,9,9,9c5,0,9-4,9-9C22-283.9,18-288,13-288z"/>
</g>
<g id="XMLID_467_">
	<path class="st3" d="M8.1-199.6"/>
</g>
<g id="XMLID_441_">
	<polygon id="XMLID_952_" class="st0" points="22,-194 3,-194 3,-219 22,-219 22,-214 20,-214 20,-217 5,-217 5,-196 20,-196 
		20,-200 22,-200 	"/>
</g>
<g id="XMLID_439_">
	<path class="st3" d="M6.1-213.6"/>
</g>
<g id="XMLID_440_">
	<polygon id="XMLID_951_" class="st0" points="14.2,-202.8 12.7,-204.2 15.1,-206.6 12.7,-208.9 14.2,-210.3 17.9,-206.6 	"/>
</g>
<g id="XMLID_468_">
	<rect id="XMLID_950_" x="10" y="-208" class="st0" width="7" height="2"/>
</g>
<g id="XMLID_192_">
	<path id="XMLID_947_" class="st4" d="M22.9,60H3.1C1.9,60,1,58.9,1,57.2V40.8C1,39.1,1.9,38,3.1,38h19.7c1.3,0,2.1,1.1,2.1,2.8
		v16.5C25,58.9,24.1,60,22.9,60z M22.8,40L3.1,40c0,0-0.1,0.3-0.1,0.8v16.5C3,57.7,3.1,58,3.2,58l19.7,0c0,0,0.1-0.3,0.1-0.8V40.8
		C23,40.3,22.9,40,22.8,40z"/>
</g>
<g id="XMLID_191_">
	<path id="XMLID_944_" class="st4" d="M22.9,60H3.1C1.9,60,1,58.9,1,57.2V40.8C1,39.1,1.9,38,3.1,38h19.7c1.3,0,2.1,1.1,2.1,2.8
		v16.5C25,58.9,24.1,60,22.9,60z M22.8,40L3.1,40c0,0-0.1,0.3-0.1,0.8v16.5C3,57.7,3.1,58,3.2,58l19.7,0c0,0,0.1-0.3,0.1-0.8V40.8
		C23,40.3,22.9,40,22.8,40z"/>
</g>
<g id="XMLID_190_">
	<path id="XMLID_943_" class="st4" d="M13,50.5c-0.2,0-0.5-0.1-0.6-0.2l-7.9-6.6c-0.4-0.4-0.5-1-0.1-1.4s1-0.5,1.4-0.1l7.9,6.6
		c0.4,0.4,0.5,1,0.1,1.4C13.6,50.4,13.3,50.5,13,50.5z"/>
</g>
<g id="XMLID_189_">
	<path id="XMLID_942_" class="st4" d="M13,50.5c-0.3,0-0.6-0.1-0.8-0.4c-0.4-0.4-0.3-1.1,0.1-1.4l4.1-3.4c1.5-1.3,3.8-3.2,3.8-3.2
		l1.3,1.5c0,0-2.3,1.8-3.8,3.1l-4.1,3.4C13.5,50.5,13.2,50.5,13,50.5z"/>
</g>
<g id="XMLID_531_">
	<path id="XMLID_941_" class="st5" d="M7.2,91.4c-0.3,0-0.5-0.1-0.7-0.3l-5.3-5.3c-0.4-0.4-0.4-1,0-1.4s1-0.4,1.4,0L7.2,89
		l16.1-16.1c0.4-0.4,1-0.4,1.4,0s0.4,1,0,1.4L7.9,91.1C7.7,91.3,7.5,91.4,7.2,91.4z"/>
</g>
<g id="XMLID_556_">
	<path id="XMLID_938_" class="st0" d="M12-230.4v-5.6H6c-2.9,0-5-1.9-5-4.6v-7.7c0-2.7,2.1-4.7,5-4.7H20c2.8,0,5,2,5,4.7v7.7
		c0,2.7-2.1,4.6-5,4.6h-1.2L12-230.4z M6-251c-1.7,0-3,1.1-3,2.7v7.7c0,1.8,1.5,2.6,3,2.6h8v3.4l4.1-3.4h2c1.5,0,3-0.8,3-2.6v-7.7
		c0-1.6-1.2-2.7-3-2.7H6z"/>
</g>
<g id="XMLID_557_">
	<rect id="XMLID_937_" x="6" y="-248" class="st0" width="12" height="2"/>
</g>
<g id="XMLID_584_">
	<rect id="XMLID_936_" x="6" y="-243" class="st0" width="9" height="2"/>
</g>
<g id="XMLID_598_">
	<rect id="XMLID_935_" x="12" y="-285" class="st0" width="2" height="6"/>
</g>
<g id="XMLID_599_">
	
		<rect id="XMLID_934_" x="13.6" y="-282.8" transform="matrix(0.7071 0.7071 -0.7071 0.7071 -194.1082 -92.4913)" class="st0" width="2" height="4.5"/>
</g>
<g id="XMLID_130_">
	<rect id="XMLID_933_" x="2" y="-170" class="st0" width="22" height="2"/>
</g>
</svg>
