<?xml version="1.0" encoding="utf-8"?>
<!-- Generator: Adobe Illustrator 19.0.0, SVG Export Plug-In . SVG Version: 6.00 Build 0)  -->
<svg version="1.1" id="Layer_1" xmlns="http://www.w3.org/2000/svg" xmlns:xlink="http://www.w3.org/1999/xlink" x="0px" y="0px"
	 viewBox="0 0 26 26" style="enable-background:new 0 0 26 26;" xml:space="preserve">
<style type="text/css">
	.st0{fill:#FFFFFF;}
	.st1{fill:#F16175;}
	.st2{fill:#C2C1C1;}
	.st3{fill:none;stroke:#FFFFFF;stroke-width:2;stroke-miterlimit:10;}
	.st4{fill:#1C75BC;}
	.st5{fill:#60BD66;}
</style>
<g id="Oval-22">
	<path id="XMLID_975_" class="st0" d="M11.8,205.5c-5.8,0-10.6-4.8-10.6-10.8S5.9,184,11.8,184s10.6,4.8,10.6,10.8
		S17.6,205.5,11.8,205.5z M11.8,186c-4.7,0-8.6,3.9-8.6,8.8s3.8,8.8,8.6,8.8c4.7,0,8.6-3.9,8.6-8.8S16.5,186,11.8,186z"/>
</g>
<g id="path-1">
	
		<rect id="XMLID_974_" x="16.3" y="204.6" transform="matrix(0.6672 0.7449 -0.7449 0.6672 160.082 52.9422)" class="st0" width="9" height="2"/>
</g>
<g id="Page-1_4_">
	<g id="XMLID_547_">
		<path class="st1" d="M12.5,243.1C10.2,242.3,1,232.4,1,229.2c0-3.5,2.9-6.4,6.4-6.4c1.8,0,3.6,0.8,4.8,2.1l0.7,0.8l0.7-0.8
			c1.2-1.4,3-2.1,4.8-2.1c3.6,0,6.4,2.8,6.4,6.4c0,3.2-9.2,13.1-11.5,13.9l-0.5-0.6L12.5,243.1z"/>
	</g>
	<g id="XMLID_182_">
		<path class="st1" d="M18.6,223.8c3,0,5.4,2.4,5.4,5.4c0,0.7-1.2,3.3-4.6,7.1c-2.5,2.9-4.6,4.7-5.7,5.5L13,241l-0.7,0.8
			c-1.1-0.7-3.2-2.5-5.7-5.5c-3.3-3.9-4.6-6.4-4.6-7.1c0-3,2.4-5.4,5.4-5.4c1.6,0,3,0.7,4.1,1.8l1.5,1.6l1.5-1.6
			C15.5,224.5,17,223.8,18.6,223.8 M18.6,221.8c-2.2,0-4.2,1-5.6,2.5c-1.4-1.5-3.3-2.5-5.6-2.5c-4.1,0-7.4,3.3-7.4,7.4
			c0,3.8,10.3,14.9,12.7,14.9c0.1,0,0.3,0,0.3-0.1c0.1,0.1,0.2,0.1,0.3,0.1c2.3,0,12.7-11.1,12.7-14.9
			C26,225.1,22.7,221.8,18.6,221.8L18.6,221.8z"/>
	</g>
</g>
<g id="Page-1_5_">
	<path class="st1" d="M18.6,259.8c3,0,5.4,2.4,5.4,5.4c0,0.7-1.2,3.3-4.6,7.1c-2.8,3.3-5.2,5.2-6.1,5.7c-0.1,0-0.2,0-0.4,0
		c-0.1,0-0.2,0-0.4,0c-0.9-0.5-3.2-2.4-6.1-5.7c-3.3-3.9-4.6-6.4-4.6-7.1c0-3,2.4-5.4,5.4-5.4c1.6,0,3,0.7,4.1,1.8
		c0.4,0.4,0.9,0.7,1.5,0.7c0.6,0,1.1-0.2,1.5-0.7C15.5,260.5,17,259.8,18.6,259.8 M18.6,257.8c-2.2,0-4.2,1-5.6,2.5
		c-1.4-1.5-3.3-2.5-5.6-2.5c-4.1,0-7.4,3.3-7.4,7.4c0,3.8,10.3,14.9,12.7,14.9c0.1,0,0.3,0,0.3-0.1c0.1,0.1,0.2,0.1,0.3,0.1
		c2.3,0,12.7-11.1,12.7-14.9C26,261.1,22.7,257.8,18.6,257.8L18.6,257.8z"/>
</g>
<g id="Stroke-1">
	<path id="XMLID_972_" class="st2" d="M10.2,305c0,1.5,1.3,2.7,2.8,2.7c1.6,0,2.8-1.2,2.8-2.7c0-1.5-1.3-2.7-2.8-2.7
		C11.4,302.2,10.2,303.4,10.2,305L10.2,305z"/>
</g>
<g id="Stroke-3">
	<path id="XMLID_971_" class="st2" d="M13,297.4c1.6,0,2.8-1.2,2.8-2.7c0-1.5-1.3-2.7-2.8-2.7c-1.6,0-2.8,1.2-2.8,2.7
		C10.2,296.2,11.4,297.4,13,297.4z"/>
</g>
<g id="Stroke-5">
	<path id="XMLID_932_" class="st2" d="M10.2,315.2c0,1.5,1.3,2.7,2.8,2.7c1.6,0,2.8-1.2,2.8-2.7c0-1.5-1.3-2.7-2.8-2.7
		C11.4,312.5,10.2,313.7,10.2,315.2L10.2,315.2z"/>
</g>
<g id="XMLID_99_">
	<path id="XMLID_968_" class="st0" d="M25,135H1v-18h24V135z M3,133h20v-14H3V133z"/>
</g>
<g id="XMLID_100_">
	<path id="XMLID_967_" class="st0" d="M19,118h-2v-1.1c0-0.6-0.4-0.9-0.9-0.9H9.9c-0.5,0-0.9,0.4-0.9,0.9v1.1H7v-1.1
		c0-1.7,1.2-2.9,2.9-2.9h6.2c1.7,0,2.9,1.3,2.9,2.9V118z"/>
</g>
<g id="XMLID_145_">
	<path id="XMLID_964_" class="st0" d="M13,172c-2.9,0-5.7-1.1-7.8-3.2C3.1,166.7,2,163.9,2,161s1.1-5.7,3.2-7.8
		c2.1-2.1,4.8-3.2,7.8-3.2c2.9,0,5.7,1.1,7.8,3.2l0,0c2.1,2.1,3.2,4.8,3.2,7.8s-1.1,5.7-3.2,7.8C18.7,170.8,15.9,172,13,172z
		 M13,151.9c-2.4,0-4.7,0.9-6.4,2.6S4,158.6,4,161s0.9,4.7,2.6,6.4s4,2.6,6.4,2.6c2.4,0,4.7-0.9,6.4-2.6s2.6-4,2.6-6.4
		s-0.9-4.7-2.6-6.4l0,0C17.7,152.9,15.4,151.9,13,151.9z"/>
</g>
<g id="XMLID_146_">
	
		<rect id="XMLID_963_" x="4.2" y="152.2" transform="matrix(0.7071 0.7071 -0.7071 0.7071 109.8417 41.1762)" class="st0" width="2" height="2"/>
</g>
<g id="XMLID_43_">
	<rect id="XMLID_962_" x="1" y="160" class="st0" width="2" height="2"/>
</g>
<g id="XMLID_44_">
	
		<rect id="XMLID_961_" x="4.2" y="167.8" transform="matrix(0.7071 0.7071 -0.7071 0.7071 120.8489 45.7355)" class="st0" width="2" height="2"/>
</g>
<g id="XMLID_45_">
	<rect id="XMLID_960_" x="12" y="171" class="st0" width="2" height="2"/>
</g>
<g id="XMLID_46_">
	
		<rect id="XMLID_959_" x="19.8" y="167.7" transform="matrix(0.7071 0.7071 -0.7071 0.7071 125.4081 34.7284)" class="st0" width="2" height="2"/>
</g>
<g id="XMLID_47_">
	<rect id="XMLID_958_" x="23" y="160" class="st0" width="2" height="2"/>
</g>
<g id="XMLID_48_">
	
		<rect id="XMLID_957_" x="19.8" y="152.2" transform="matrix(0.7071 0.7071 -0.7071 0.7071 114.401 30.1691)" class="st0" width="2" height="2"/>
</g>
<g id="XMLID_50_">
	<rect id="XMLID_956_" x="12" y="149" class="st0" width="2" height="2"/>
</g>
<g id="XMLID_606_">
	<path id="XMLID_953_" class="st0" d="M13,24C6.9,24,2,19.1,2,13C2,6.9,6.9,2,13,2s11,4.9,11,11C24,19.1,19.1,24,13,24z M13,4
		c-5,0-9,4-9,9c0,5,4,9,9,9c5,0,9-4,9-9C22,8,18,4,13,4z"/>
</g>
<g id="XMLID_467_">
	<path class="st3" d="M8.1,92.4"/>
</g>
<g id="XMLID_441_">
	<polygon id="XMLID_952_" class="st0" points="22,98 3,98 3,73 22,73 22,78 20,78 20,75 5,75 5,96 20,96 20,92 22,92 	"/>
</g>
<g id="XMLID_439_">
	<path class="st3" d="M6.1,78.4"/>
</g>
<g id="XMLID_440_">
	<polygon id="XMLID_951_" class="st0" points="14.2,89.1 12.7,87.7 15.1,85.4 12.7,83 14.2,81.6 17.9,85.4 	"/>
</g>
<g id="XMLID_468_">
	<rect id="XMLID_950_" x="10" y="84" class="st0" width="7" height="2"/>
</g>
<g id="XMLID_192_">
	<path id="XMLID_947_" class="st4" d="M22.9,352H3.1c-1.3,0-2.1-1.1-2.1-2.8v-16.5c0-1.6,0.9-2.8,2.1-2.8h19.7
		c1.3,0,2.1,1.1,2.1,2.8v16.5C25,350.8,24.1,352,22.9,352z M22.8,331.9l-19.7,0c0,0-0.1,0.3-0.1,0.8v16.5c0,0.4,0.1,0.7,0.2,0.8
		l19.7,0c0,0,0.1-0.3,0.1-0.8v-16.5C23,332.3,22.9,332,22.8,331.9z"/>
</g>
<g id="XMLID_191_">
	<path id="XMLID_944_" class="st4" d="M22.9,352H3.1c-1.3,0-2.1-1.1-2.1-2.8v-16.5c0-1.6,0.9-2.8,2.1-2.8h19.7
		c1.3,0,2.1,1.1,2.1,2.8v16.5C25,350.8,24.1,352,22.9,352z M22.8,331.9l-19.7,0c0,0-0.1,0.3-0.1,0.8v16.5c0,0.4,0.1,0.7,0.2,0.8
		l19.7,0c0,0,0.1-0.3,0.1-0.8v-16.5C23,332.3,22.9,332,22.8,331.9z"/>
</g>
<g id="XMLID_190_">
	<path id="XMLID_943_" class="st4" d="M13,342.5c-0.2,0-0.5-0.1-0.6-0.2l-7.9-6.6c-0.4-0.4-0.5-1-0.1-1.4s1-0.5,1.4-0.1l7.9,6.6
		c0.4,0.4,0.5,1,0.1,1.4C13.6,342.4,13.3,342.5,13,342.5z"/>
</g>
<g id="XMLID_189_">
	<path id="XMLID_942_" class="st4" d="M13,342.5c-0.3,0-0.6-0.1-0.8-0.4c-0.4-0.4-0.3-1.1,0.1-1.4l4.1-3.4c1.5-1.3,3.8-3.2,3.8-3.2
		l1.3,1.5c0,0-2.3,1.8-3.8,3.1l-4.1,3.4C13.5,342.4,13.2,342.5,13,342.5z"/>
</g>
<g id="XMLID_531_">
	<path id="XMLID_941_" class="st5" d="M7.2,383.4c-0.3,0-0.5-0.1-0.7-0.3l-5.3-5.3c-0.4-0.4-0.4-1,0-1.4s1-0.4,1.4,0l4.6,4.6
		l16.1-16.1c0.4-0.4,1-0.4,1.4,0s0.4,1,0,1.4L7.9,383.1C7.7,383.3,7.5,383.4,7.2,383.4z"/>
</g>
<g id="XMLID_556_">
	<path id="XMLID_938_" class="st0" d="M12,61.6V56H6c-2.9,0-5-1.9-5-4.6v-7.7C1,41,3.1,39,6,39H20c2.8,0,5,2,5,4.7v7.7
		c0,2.7-2.1,4.6-5,4.6h-1.2L12,61.6z M6,41c-1.7,0-3,1.1-3,2.7v7.7C3,53.2,4.5,54,6,54h8v3.4l4.1-3.4h2c1.5,0,3-0.8,3-2.6v-7.7
		c0-1.6-1.2-2.7-3-2.7H6z"/>
</g>
<g id="XMLID_557_">
	<rect id="XMLID_937_" x="6" y="44" class="st0" width="12" height="2"/>
</g>
<g id="XMLID_584_">
	<rect id="XMLID_936_" x="6" y="49" class="st0" width="9" height="2"/>
</g>
<g id="XMLID_598_">
	<rect id="XMLID_935_" x="12" y="7" class="st0" width="2" height="6"/>
</g>
<g id="XMLID_599_">
	
		<rect id="XMLID_934_" x="13.6" y="9.2" transform="matrix(0.7071 0.7071 -0.7071 0.7071 12.3402 -6.9776)" class="st0" width="2" height="4.5"/>
</g>
<g id="XMLID_130_">
	<rect id="XMLID_933_" x="2" y="122" class="st0" width="22" height="2"/>
</g>
</svg>
